Migratory Paraburkholderia on Wood Decay Fungi
…
#Count the number of replicates for each combination
tracking %>% 
  group_by(Bacterium, Fungus) %>% 
  tally()

## Source: local data frame [30 x 3]
## Groups: Bacterium [?]
## 
##    Bacterium Fungus     n
##       <fctr> <fctr> <int>
## 1    BCC1884     Ba    40
## 2    BCC1884    Bxn    40
## 3    BCC1884    Hf1    40
## 4    BCC1884    Hf2    40
## 5    BCC1884    Psp    40
## 6    BCC1884     Pv    40
## 7    BCC1884     Rb    40
## 8    BCC1884     Sh    40
## 9    BCC1884     Tv    40
## 10   BCC1884     Vc    40
## # ... with 20 more rows
…
